SLCU R Course
…
inner_join() is equivalent to the intersect of the samples in two data sets.

full_join() is equivalent to the union of the samples in the two data sets.

Reshapping data (gather() and spread())

Often, we might have data in what is sometimes called a wide format.

For example, in the iris dataset, we have classic data of petal and sepal lengths and widths in three Iris species. In this table, each organs measurement has its own column:

# For convenience convert the iris dataset to a tibble (so it doesn't print out of the screen!)
iris <- as_tibble(iris)
iris

## # A tibble: 150 x 5
##    Sepal.Length Sepal.Width Petal.Length Petal.Width Species
##           <dbl>       <dbl>        <dbl>       <dbl> <fct>  
##  1         5.10        3.50         1.40       0.200 setosa 
##  2         4.90        3.00         1.40       0.200 setosa 
##  3         4.70        3.20         1.30       0.200 setosa 
##  4         4.60        3.10         1.50       0.200 setosa 
##  5         5.00        3.60         1.40       0.200 setosa 
##  6         5.40        3.90         1.70       0.400 setosa 
##  7         4.60        3.40         1.40       0.300 setosa 
##  8         5.00        3.40         1.50       0.200 setosa 
##  9         4.40        2.90         1.40       0.200 setosa 
## 10         4.90        3.10         1.50       0.100 setosa 
## # ... with 140 more rows
…
To gather data (i.e.from a wide to a long format), we do:

iris_long <- iris %>% 
  mutate(flower_id = 1:n()) %>%         # Make an identifier for each flower
  gather(trait, size, -Species, -flower_id)
iris_long

## # A tibble: 600 x 4
##    Species flower_id trait         size
##    <fct>       <int> <chr>        <dbl>
##  1 setosa          1 Sepal.Length  5.10
##  2 setosa          2 Sepal.Length  4.90
##  3 setosa          3 Sepal.Length  4.70
##  4 setosa          4 Sepal.Length  4.60
##  5 setosa          5 Sepal.Length  5.00
##  6 setosa          6 Sepal.Length  5.40
##  7 setosa          7 Sepal.Length  4.60
##  8 setosa          8 Sepal.Length  5.00
##  9 setosa          9 Sepal.Length  4.40
## 10 setosa         10 Sepal.Length  4.90
## # ... with 590 more rows
…
To spread the data (long > wide), we would do:

iris_long %>% 
  spread(trait, size)

## # A tibble: 150 x 6
##    Species flower_id Petal.Length Petal.Width Sepal.Length Sepal.Width
##  * <fct>       <int>        <dbl>       <dbl>        <dbl>       <dbl>
##  1 setosa          1         1.40       0.200         5.10        3.50
##  2 setosa          2         1.40       0.200         4.90        3.00
##  3 setosa          3         1.30       0.200         4.70        3.20
##  4 setosa          4         1.50       0.200         4.60        3.10
##  5 setosa          5         1.40       0.200         5.00        3.60
##  6 setosa          6         1.70       0.400         5.40        3.90
##  7 setosa          7         1.40       0.300         4.60        3.40
##  8 setosa          8         1.50       0.200         5.00        3.40
##  9 setosa          9         1.40       0.200         4.40        2.90
## 10 setosa         10         1.50       0.100         4.90        3.10
## # ... with 140 more rows
…
For example, in the iris_long object, we might want to separate the trait column into a column indicating the flower organ (petal or sepal) and another one indicating the type of measurement (width or length).

These two pieces of information are separated by a .:

unique(iris_long$trait)

## [1] "Sepal.Length" "Sepal.Width"  "Petal.Length" "Petal.Width"

Using separate(), we can separate the values in this column into two columns:

# Automatic guess
iris_long %>% 
  separate(trait, c("organ", "measure"))

## # A tibble: 600 x 5
##    Species flower_id organ measure  size
##  * <fct>       <int> <chr> <chr>   <dbl>
##  1 setosa          1 Sepal Length   5.10
##  2 setosa          2 Sepal Length   4.90
##  3 setosa          3 Sepal Length   4.70
##  4 setosa          4 Sepal Length   4.60
##  5 setosa          5 Sepal Length   5.00
##  6 setosa          6 Sepal Length   5.40
##  7 setosa          7 Sepal Length   4.60
##  8 setosa          8 Sepal Length   5.00
##  9 setosa          9 Sepal Length   4.40
## 10 setosa         10 Sepal Length   4.90
## # ... with 590 more rows
…
In the code above, we let separate() guess what the separator was (by default it finds any non-alphanumeric character). But we can be explicit, by telling it the separator is a .. However, the dot . symbol is a special character used in regular expressions. This is beyond the scope of this course, but in summary, regular expressions allow us to find patterns in character strings. (see here if you want to know more about them - they can be very useful to match patterns in our data!)

Because of this special use of the dot . symbol, we need to tell the function to ignore the special meaning of the dot . symbol by prefixing it with \\:

iris_long %>% 
  separate(trait, c("organ", "measure"), 
           sep = "\\.", 
           remove = FALSE)

## # A tibble: 600 x 6
##    Species flower_id trait        organ measure  size
##  * <fct>       <int> <chr>        <chr> <chr>   <dbl>
##  1 setosa          1 Sepal.Length Sepal Length   5.10
##  2 setosa          2 Sepal.Length Sepal Length   4.90
##  3 setosa          3 Sepal.Length Sepal Length   4.70
##  4 setosa          4 Sepal.Length Sepal Length   4.60
##  5 setosa          5 Sepal.Length Sepal Length   5.00
##  6 setosa          6 Sepal.Length Sepal Length   5.40
##  7 setosa          7 Sepal.Length Sepal Length   4.60
##  8 setosa          8 Sepal.Length Sepal Length   5.00
##  9 setosa          9 Sepal.Length Sepal Length   4.40
## 10 setosa         10 Sepal.Length Sepal Length   4.90
## # ... with 590 more rows

Notice how above we also retained the original column name.

Note: the reverse of separate() is unite():

iris_long %>% 
  separate(trait, c("organ", "measure")) %>% 
  unite(trait, organ, measure, sep = ".")

## # A tibble: 600 x 4
##    Species flower_id trait         size
##  * <fct>       <int> <chr>        <dbl>
##  1 setosa          1 Sepal.Length  5.10
##  2 setosa          2 Sepal.Length  4.90
##  3 setosa          3 Sepal.Length  4.70
##  4 setosa          4 Sepal.Length  4.60
##  5 setosa          5 Sepal.Length  5.00
##  6 setosa          6 Sepal.Length  5.40
##  7 setosa          7 Sepal.Length  4.60
##  8 setosa          8 Sepal.Length  5.00
##  9 setosa          9 Sepal.Length  4.40
## 10 setosa         10 Sepal.Length  4.90
## # ... with 590 more rows
…
Sorting data

Sometimes, we might want to order our data based on the values in one column. For this, we can use arrange():

iris %>% 
  arrange(Petal.Width)

## # A tibble: 150 x 5
##    Sepal.Length Sepal.Width Petal.Length Petal.Width Species
##           <dbl>       <dbl>        <dbl>       <dbl> <fct>  
##  1         4.90        3.10         1.50       0.100 setosa 
##  2         4.80        3.00         1.40       0.100 setosa 
##  3         4.30        3.00         1.10       0.100 setosa 
##  4         5.20        4.10         1.50       0.100 setosa 
##  5         4.90        3.60         1.40       0.100 setosa 
##  6         5.10        3.50         1.40       0.200 setosa 
##  7         4.90        3.00         1.40       0.200 setosa 
##  8         4.70        3.20         1.30       0.200 setosa 
##  9         4.60        3.10         1.50       0.200 setosa 
## 10         5.00        3.60         1.40       0.200 setosa 
## # ... with 140 more rows

The default is to order values from low to high. If we want to order from high to low, we have to specify it using desc():

iris %>% 
  arrange(desc(Petal.Width))

## # A tibble: 150 x 5
##    Sepal.Length Sepal.Width Petal.Length Petal.Width Species  
##           <dbl>       <dbl>        <dbl>       <dbl> <fct>    
##  1         6.30        3.30         6.00        2.50 virginica
##  2         7.20        3.60         6.10        2.50 virginica
##  3         6.70        3.30         5.70        2.50 virginica
##  4         5.80        2.80         5.10        2.40 virginica
##  5         6.30        3.40         5.60        2.40 virginica
##  6         6.70        3.10         5.60        2.40 virginica
##  7         6.40        3.20         5.30        2.30 virginica
##  8         7.70        2.60         6.90        2.30 virginica
##  9         6.90        3.20         5.70        2.30 virginica
## 10         7.70        3.00         6.10        2.30 virginica
## # ... with 140 more rows
…
